what,kind,bundleId,bundleVersion,description,time
activated,editor,org.eclipse.jdt.ui,3.7.1.r371_v20110824-0800,"org.eclipse.jdt.ui.CompilationUnitEditor",1340391848519
executed,command,org.eclipse.ui.workbench.texteditor,3.7.0.v20110505-0800,"org.eclipse.ui.edit.text.select.lineEnd",1340391850948
executed,command,org.eclipse.ui,3.7.0.I20110602-0100,"org.eclipse.ui.edit.copy",1340391851268
activated,editor,org.eclipse.jdt.ui,3.7.1.r371_v20110824-0800,"org.eclipse.jdt.ui.CompilationUnitEditor",1340391852421
executed,command,org.eclipse.ui.workbench.texteditor,3.7.0.v20110505-0800,"org.eclipse.ui.edit.text.select.lineStart",1340391853771
executed,command,org.eclipse.ui,3.7.0.I20110602-0100,"org.eclipse.ui.edit.copy",1340391854036
activated,editor,org.eclipse.jdt.ui,3.7.1.r371_v20110824-0800,"org.eclipse.jdt.ui.CompilationUnitEditor",1340391854784
executed,command,org.eclipse.ui.workbench.texteditor,3.7.0.v20110505-0800,"org.eclipse.ui.edit.text.select.lineStart",1340391856895
executed,command,org.eclipse.ui,3.7.0.I20110602-0100,"org.eclipse.ui.edit.paste",1340391857194
executed,command,org.eclipse.ui,3.7.0.I20110602-0100,"org.eclipse.ui.edit.text.contentAssist.proposals",1340391860343
executed,command,org.eclipse.ui,3.7.0.I20110602-0100,"org.eclipse.ui.edit.undo",1340391861230
activated,editor,org.eclipse.jdt.ui,3.7.1.r371_v20110824-0800,"org.eclipse.jdt.ui.CompilationUnitEditor",1340391862681
executed,command,org.eclipse.ui,3.7.0.I20110602-0100,"org.eclipse.ui.edit.copy",1340391864444
activated,editor,org.eclipse.jdt.ui,3.7.1.r371_v20110824-0800,"org.eclipse.jdt.ui.CompilationUnitEditor",1340391865399
executed,command,org.eclipse.ui,3.7.0.I20110602-0100,"org.eclipse.ui.edit.paste",1340391866284
activated,editor,org.eclipse.jdt.ui,3.7.1.r371_v20110824-0800,"org.eclipse.jdt.ui.CompilationUnitEditor",1340391867247
executed,command,org.eclipse.ui.workbench.texteditor,3.7.0.v20110505-0800,"org.eclipse.ui.edit.text.select.lineStart",1340391868505
executed,command,org.eclipse.ui,3.7.0.I20110602-0100,"org.eclipse.ui.edit.copy",1340391868794
activated,editor,org.eclipse.jdt.ui,3.7.1.r371_v20110824-0800,"org.eclipse.jdt.ui.CompilationUnitEditor",1340391869545
executed,command,org.eclipse.ui.workbench.texteditor,3.7.0.v20110505-0800,"org.eclipse.ui.edit.text.select.lineStart",1340391870559
executed,command,org.eclipse.ui,3.7.0.I20110602-0100,"org.eclipse.ui.edit.paste",1340391870885
activated,view,org.eclipse.ui.navigator.resources,3.4.300.I20110421-1800,"org.eclipse.ui.navigator.ProjectExplorer",1340391872381
executed,command,org.eclipse.ui,3.7.0.I20110602-0100,"org.eclipse.ui.edit.copy",1340391873995
deactivated,workbench,org.eclipse.ui.workbench,3.7.0.I20110519-0100,"",1340391878800
activated,workbench,org.eclipse.ui.workbench,3.7.0.I20110519-0100,"",1340391880180
deactivated,workbench,org.eclipse.ui.workbench,3.7.0.I20110519-0100,"",1340391885062
activated,workbench,org.eclipse.ui.workbench,3.7.0.I20110519-0100,"",1340391886633
executed,command,org.eclipse.ui,3.7.0.I20110602-0100,"org.eclipse.ui.edit.paste",1340391886640
deactivated,workbench,org.eclipse.ui.workbench,3.7.0.I20110519-0100,"",1340391887805
activated,workbench,org.eclipse.ui.workbench,3.7.0.I20110519-0100,"",1340391921827
deactivated,workbench,org.eclipse.ui.workbench,3.7.0.I20110519-0100,"",1340391928427
error,log,,,"Core exception while retrieving the content description",1340391928833
error,log,,,"Core exception while retrieving the content description",1340391928840
error,log,,,"Core exception while retrieving the content description",1340391928848
error,log,,,"Core exception while retrieving the content description",1340391928854
activated,workbench,org.eclipse.ui.workbench,3.7.0.I20110519-0100,"",1340391928888
executed,command,org.eclipse.ui,3.7.0.I20110602-0100,"org.eclipse.ui.edit.paste",1340391928889
error,log,,,"Core exception while retrieving the content description",1340391929063
error,log,,,"Core exception while retrieving the content description",1340391929070
error,log,,,"Core exception while retrieving the content description",1340391929531
error,log,,,"Core exception while retrieving the content description",1340391929534
error,log,,,"Core exception while retrieving the content description",1340391929537
error,log,,,"Core exception while retrieving the content description",1340391929540
error,log,,,"Core exception while retrieving the content description",1340391929542
activated,editor,org.eclipse.jdt.ui,3.7.1.r371_v20110824-0800,"org.eclipse.jdt.ui.CompilationUnitEditor",1340391947146
executed,command,org.eclipse.ui,3.7.0.I20110602-0100,"org.eclipse.ui.edit.undo",1340391948374
executed,command,org.eclipse.ui,3.7.0.I20110602-0100,"org.eclipse.ui.file.save",1340391948640
deactivated,workbench,org.eclipse.ui.workbench,3.7.0.I20110519-0100,"",1340391950098
activated,workbench,org.eclipse.ui.workbench,3.7.0.I20110519-0100,"",1340391954359
activated,view,org.eclipse.ui.navigator.resources,3.4.300.I20110421-1800,"org.eclipse.ui.navigator.ProjectExplorer",1340391957095
deactivated,workbench,org.eclipse.ui.workbench,3.7.0.I20110519-0100,"",1340391959918
activated,workbench,org.eclipse.ui.workbench,3.7.0.I20110519-0100,"",1340391960815
executed,command,org.eclipse.ui,3.7.0.I20110602-0100,"org.eclipse.ui.edit.paste",1340391963096
activated,editor,org.eclipse.wst.html.ui,1.0.602.v201202091936,"org.eclipse.wst.html.core.htmlsource.source",1340391965492
activated,view,org.eclipse.ui.navigator.resources,3.4.300.I20110421-1800,"org.eclipse.ui.navigator.ProjectExplorer",1340391967453
executed,command,org.eclipse.ui,3.7.0.I20110602-0100,"org.eclipse.ui.edit.copy",1340391969756
executed,command,org.eclipse.ui,3.7.0.I20110602-0100,"org.eclipse.ui.edit.paste",1340391972974
opened,editor,org.eclipse.wst.html.ui,1.0.602.v201202091936,"org.eclipse.wst.html.core.htmlsource.source",1340391974262
activated,editor,org.eclipse.wst.html.ui,1.0.602.v201202091936,"org.eclipse.wst.html.core.htmlsource.source",1340391974292
deactivated,workbench,org.eclipse.ui.workbench,3.7.0.I20110519-0100,"",1340391977575
activated,workbench,org.eclipse.ui.workbench,3.7.0.I20110519-0100,"",1340391984960
executed,command,org.eclipse.ui,3.7.0.I20110602-0100,"org.eclipse.ui.edit.paste",1340391986762
executed,command,org.eclipse.ui,3.7.0.I20110602-0100,"org.eclipse.ui.edit.undo",1340391990610
executed,command,org.eclipse.ui,3.7.0.I20110602-0100,"org.eclipse.ui.edit.paste",1340391992836
executed,command,org.eclipse.ui,3.7.0.I20110602-0100,"org.eclipse.ui.file.save",1340391997315
activated,view,org.eclipse.ui.navigator.resources,3.4.300.I20110421-1800,"org.eclipse.ui.navigator.ProjectExplorer",1340392001830
opened,editor,com.android.ide.eclipse.adt,18.0.0.v201203301601-306762,"com.android.ide.eclipse.editors.manifest.ManifestEditor",1340392003324
activated,editor,com.android.ide.eclipse.adt,18.0.0.v201203301601-306762,"com.android.ide.eclipse.editors.manifest.ManifestEditor",1340392003360
activated,editor,org.eclipse.wst.html.ui,1.0.602.v201202091936,"org.eclipse.wst.html.core.htmlsource.source",1340392006093
closed,editor,com.android.ide.eclipse.adt,18.0.0.v201203301601-306762,"com.android.ide.eclipse.editors.manifest.ManifestEditor",1340392006093
activated,editor,org.eclipse.jdt.ui,3.7.1.r371_v20110824-0800,"org.eclipse.jdt.ui.CompilationUnitEditor",1340392006962
activated,view,org.eclipse.ui.navigator.resources,3.4.300.I20110421-1800,"org.eclipse.ui.navigator.ProjectExplorer",1340392009247
closed,editor,org.eclipse.wst.html.ui,1.0.602.v201202091936,"org.eclipse.wst.html.core.htmlsource.source",1340392009247
closed,editor,org.eclipse.wst.xml.ui,1.1.202.v201112071516,"org.eclipse.wst.xml.ui.internal.tabletree.XMLMultiPageEditorPart",1340392009304
closed,editor,org.eclipse.jdt.ui,3.7.1.r371_v20110824-0800,"org.eclipse.jdt.ui.CompilationUnitEditor",1340392009316
closed,editor,org.eclipse.jdt.ui,3.7.1.r371_v20110824-0800,"org.eclipse.jdt.ui.CompilationUnitEditor",1340392009326
closed,editor,org.eclipse.wst.html.ui,1.0.602.v201202091936,"org.eclipse.wst.html.core.htmlsource.source",1340392009339
opened,editor,com.android.ide.eclipse.adt,18.0.0.v201203301601-306762,"com.android.ide.eclipse.editors.manifest.ManifestEditor",1340392016561
activated,editor,com.android.ide.eclipse.adt,18.0.0.v201203301601-306762,"com.android.ide.eclipse.editors.manifest.ManifestEditor",1340392016573
deactivated,workbench,org.eclipse.ui.workbench,3.7.0.I20110519-0100,"",1340392020124
activated,workbench,org.eclipse.ui.workbench,3.7.0.I20110519-0100,"",1340392038071
executed,command,org.eclipse.ui,3.7.0.I20110602-0100,"org.eclipse.ui.edit.paste",1340392040271
deactivated,workbench,org.eclipse.ui.workbench,3.7.0.I20110519-0100,"",1340392041325
activated,workbench,org.eclipse.ui.workbench,3.7.0.I20110519-0100,"",1340392048940
executed,command,org.eclipse.ui,3.7.0.I20110602-0100,"org.eclipse.ui.edit.paste",1340392055304
executed,command,org.eclipse.ui,3.7.0.I20110602-0100,"org.eclipse.ui.file.save",1340392056929
deactivated,workbench,org.eclipse.ui.workbench,3.7.0.I20110519-0100,"",1340392060449
activated,workbench,org.eclipse.ui.workbench,3.7.0.I20110519-0100,"",1340392069317
activated,view,org.eclipse.ui.navigator.resources,3.4.300.I20110421-1800,"org.eclipse.ui.navigator.ProjectExplorer",1340392072077
opened,editor,org.eclipse.wst.html.ui,1.0.602.v201202091936,"org.eclipse.wst.html.core.htmlsource.source",1340392072724
activated,editor,org.eclipse.wst.html.ui,1.0.602.v201202091936,"org.eclipse.wst.html.core.htmlsource.source",1340392072762
activated,view,org.eclipse.ui.navigator.resources,3.4.300.I20110421-1800,"org.eclipse.ui.navigator.ProjectExplorer",1340392076523
executed,command,,,"com.android.ide.eclipse.adt.debug.launching.LaunchShortcut.run",1340392081713
opened,view,com.android.ide.eclipse.ddms,18.0.0.v201203301601-306762,"com.android.ide.eclipse.ddms.views.LogCatView",1340392095890
activated,view,com.android.ide.eclipse.ddms,18.0.0.v201203301601-306762,"com.android.ide.eclipse.ddms.views.LogCatView",1340392095917
deactivated,workbench,org.eclipse.ui.workbench,3.7.0.I20110519-0100,"",1340392125175
activated,workbench,org.eclipse.ui.workbench,3.7.0.I20110519-0100,"",1340392126740
deactivated,workbench,org.eclipse.ui.workbench,3.7.0.I20110519-0100,"",1340392130172
activated,workbench,org.eclipse.ui.workbench,3.7.0.I20110519-0100,"",1340392130674
activated,view,org.eclipse.ui.navigator.resources,3.4.300.I20110421-1800,"org.eclipse.ui.navigator.ProjectExplorer",1340392133905
deactivated,workbench,org.eclipse.ui.workbench,3.7.0.I20110519-0100,"",1340392142443
activated,workbench,org.eclipse.ui.workbench,3.7.0.I20110519-0100,"",1340392147894
executed,command,org.eclipse.ui,3.7.0.I20110602-0100,"org.eclipse.ui.edit.paste",1340392149517
executed,command,org.eclipse.ui,3.7.0.I20110602-0100,"org.eclipse.ui.file.refresh",1340392155404
executed,command,org.eclipse.ui,3.7.0.I20110602-0100,"org.eclipse.ui.file.refresh",1340392155613
executed,command,org.eclipse.ui,3.7.0.I20110602-0100,"org.eclipse.ui.file.refresh",1340392155759
executed,command,org.eclipse.ui,3.7.0.I20110602-0100,"org.eclipse.ui.file.refresh",1340392155861
executed,command,org.eclipse.ui,3.7.0.I20110602-0100,"org.eclipse.ui.file.refresh",1340392155996
executed,command,org.eclipse.ui,3.7.0.I20110602-0100,"org.eclipse.ui.file.refresh",1340392156109
executed,command,,,"com.android.ide.eclipse.adt.debug.launching.LaunchShortcut.run",1340392159350
executed,command,org.eclipse.ui,3.7.0.I20110602-0100,"org.eclipse.ui.edit.copy",1340392183075
executed,command,org.eclipse.ui,3.7.0.I20110602-0100,"org.eclipse.ui.edit.copy",1340392183228
activated,editor,org.eclipse.wst.html.ui,1.0.602.v201202091936,"org.eclipse.wst.html.core.htmlsource.source",1340392184010
activated,view,org.eclipse.ui.navigator.resources,3.4.300.I20110421-1800,"org.eclipse.ui.navigator.ProjectExplorer",1340392184240
executed,command,org.eclipse.ui,3.7.0.I20110602-0100,"org.eclipse.ui.edit.paste",1340392187656
activated,editor,org.eclipse.wst.html.ui,1.0.602.v201202091936,"org.eclipse.wst.html.core.htmlsource.source",1340392193351
executed,command,org.eclipse.ui,3.7.0.I20110602-0100,"org.eclipse.ui.file.save",1340392194509
activated,view,org.eclipse.ui.navigator.resources,3.4.300.I20110421-1800,"org.eclipse.ui.navigator.ProjectExplorer",1340392195452
executed,command,,,"com.android.ide.eclipse.adt.debug.launching.LaunchShortcut.run",1340392197779
executed,command,org.eclipse.ui,3.7.0.I20110602-0100,"org.eclipse.ui.edit.paste",1340392225339
deactivated,workbench,org.eclipse.ui.workbench,3.7.0.I20110519-0100,"",1340392231434
closed,editor,org.eclipse.wst.html.ui,1.0.602.v201202091936,"org.eclipse.wst.html.core.htmlsource.source",1340392234336
activated,workbench,org.eclipse.ui.workbench,3.7.0.I20110519-0100,"",1340392234354
executed,command,org.eclipse.ltk.ui.refactoring,3.6.0.v20110505-0800,"org.eclipse.ltk.ui.refactoring.commands.deleteResources",1340392234378
executed,command,org.eclipse.ui,3.7.0.I20110602-0100,"org.eclipse.ui.edit.delete",1340392234378
executed,command,,,"com.android.ide.eclipse.adt.debug.launching.LaunchShortcut.run",1340392301342
opened,editor,org.eclipse.wst.html.ui,1.0.602.v201202091936,"org.eclipse.wst.html.core.htmlsource.source",1340392315908
activated,editor,org.eclipse.wst.html.ui,1.0.602.v201202091936,"org.eclipse.wst.html.core.htmlsource.source",1340392315936
executed,command,org.eclipse.ui,3.7.0.I20110602-0100,"org.eclipse.ui.file.save",1340392320180
deactivated,workbench,org.eclipse.ui.workbench,3.7.0.I20110519-0100,"",1340392342234
activated,workbench,org.eclipse.ui.workbench,3.7.0.I20110519-0100,"",1340392347255
deactivated,workbench,org.eclipse.ui.workbench,3.7.0.I20110519-0100,"",1340392350068
activated,workbench,org.eclipse.ui.workbench,3.7.0.I20110519-0100,"",1340392353733
deactivated,workbench,org.eclipse.ui.workbench,3.7.0.I20110519-0100,"",1340392356465
activated,workbench,org.eclipse.ui.workbench,3.7.0.I20110519-0100,"",1340392363275
executed,command,org.eclipse.ui,3.7.0.I20110602-0100,"org.eclipse.ui.window.preferences",1340392363282
activated,view,org.eclipse.ui.navigator.resources,3.4.300.I20110421-1800,"org.eclipse.ui.navigator.ProjectExplorer",1340392364548
deactivated,workbench,org.eclipse.ui.workbench,3.7.0.I20110519-0100,"",1340392367475
activated,workbench,org.eclipse.ui.workbench,3.7.0.I20110519-0100,"",1340392382074
deactivated,workbench,org.eclipse.ui.workbench,3.7.0.I20110519-0100,"",1340392403678
activated,workbench,org.eclipse.ui.workbench,3.7.0.I20110519-0100,"",1340392513031
deactivated,workbench,org.eclipse.ui.workbench,3.7.0.I20110519-0100,"",1340392514508
activated,workbench,org.eclipse.ui.workbench,3.7.0.I20110519-0100,"",1340392516397
deactivated,workbench,org.eclipse.ui.workbench,3.7.0.I20110519-0100,"",1340392519873
activated,workbench,org.eclipse.ui.workbench,3.7.0.I20110519-0100,"",1340392521007
deactivated,workbench,org.eclipse.ui.workbench,3.7.0.I20110519-0100,"",1340392524410
activated,workbench,org.eclipse.ui.workbench,3.7.0.I20110519-0100,"",1340392525360
deactivated,workbench,org.eclipse.ui.workbench,3.7.0.I20110519-0100,"",1340392530846
started,bundle,org.eclipse.wst.jsdt.debug.rhino.ui,1.0.1.v201201112313,"org.eclipse.wst.jsdt.debug.rhino.ui",1340392533281
activated,workbench,org.eclipse.ui.workbench,3.7.0.I20110519-0100,"",1340392533345
executed,command,org.eclipse.ltk.ui.refactoring,3.6.0.v20110505-0800,"org.eclipse.ltk.ui.refactoring.commands.moveResources",1340392533351
executed,command,org.eclipse.ui,3.7.0.I20110602-0100,"org.eclipse.ui.edit.move",1340392533351
deactivated,workbench,org.eclipse.ui.workbench,3.7.0.I20110519-0100,"",1340392541501
activated,workbench,org.eclipse.ui.workbench,3.7.0.I20110519-0100,"",1340392544024
deactivated,workbench,org.eclipse.ui.workbench,3.7.0.I20110519-0100,"",1340392547608
activated,workbench,org.eclipse.ui.workbench,3.7.0.I20110519-0100,"",1340392644440
activated,editor,org.eclipse.wst.html.ui,1.0.602.v201202091936,"org.eclipse.wst.html.core.htmlsource.source",1340392648783
executed,command,org.eclipse.ui.workbench.texteditor,3.7.0.v20110505-0800,"org.eclipse.ui.edit.text.select.lineStart",1340392649304
executed,command,org.eclipse.ui,3.7.0.I20110602-0100,"org.eclipse.ui.edit.copy",1340392649594
executed,command,org.eclipse.ui.workbench.texteditor,3.7.0.v20110505-0800,"org.eclipse.ui.edit.text.goto.lineEnd",1340392650197
executed,command,org.eclipse.ui,3.7.0.I20110602-0100,"org.eclipse.ui.edit.paste",1340392650660
executed,command,org.eclipse.ui,3.7.0.I20110602-0100,"org.eclipse.ui.edit.paste",1340392651163
activated,view,org.eclipse.ui.navigator.resources,3.4.300.I20110421-1800,"org.eclipse.ui.navigator.ProjectExplorer",1340392653375
executed,command,org.eclipse.ui,3.7.0.I20110602-0100,"org.eclipse.ui.file.refresh",1340392654546
deactivated,workbench,org.eclipse.ui.workbench,3.7.0.I20110519-0100,"",1340392657685
executed,command,org.eclipse.ui,3.7.0.I20110602-0100,"org.eclipse.ui.edit.copy",1340392658851
activated,workbench,org.eclipse.ui.workbench,3.7.0.I20110519-0100,"",1340392659258
executed,command,org.eclipse.ltk.ui.refactoring,3.6.0.v20110505-0800,"org.eclipse.ltk.ui.refactoring.commands.renameResource",1340392659273
executed,command,org.eclipse.ui,3.7.0.I20110602-0100,"org.eclipse.ui.edit.rename",1340392659273
activated,editor,org.eclipse.wst.html.ui,1.0.602.v201202091936,"org.eclipse.wst.html.core.htmlsource.source",1340392661059
executed,command,org.eclipse.ui,3.7.0.I20110602-0100,"org.eclipse.ui.edit.paste",1340392662347
executed,command,org.eclipse.ui,3.7.0.I20110602-0100,"org.eclipse.ui.edit.paste",1340392668800
executed,command,org.eclipse.ui,3.7.0.I20110602-0100,"org.eclipse.ui.edit.copy",1340392670757
executed,command,org.eclipse.ui,3.7.0.I20110602-0100,"org.eclipse.ui.edit.paste",1340392672590
executed,command,org.eclipse.ui,3.7.0.I20110602-0100,"org.eclipse.ui.edit.paste",1340392673943
activated,view,org.eclipse.ui.navigator.resources,3.4.300.I20110421-1800,"org.eclipse.ui.navigator.ProjectExplorer",1340392676178
deactivated,workbench,org.eclipse.ui.workbench,3.7.0.I20110519-0100,"",1340392676601
executed,command,org.eclipse.ui,3.7.0.I20110602-0100,"org.eclipse.ui.edit.copy",1340392677311
activated,workbench,org.eclipse.ui.workbench,3.7.0.I20110519-0100,"",1340392677784
executed,command,org.eclipse.ltk.ui.refactoring,3.6.0.v20110505-0800,"org.eclipse.ltk.ui.refactoring.commands.renameResource",1340392677795
executed,command,org.eclipse.ui,3.7.0.I20110602-0100,"org.eclipse.ui.edit.rename",1340392677795
activated,editor,org.eclipse.wst.html.ui,1.0.602.v201202091936,"org.eclipse.wst.html.core.htmlsource.source",1340392679487
executed,command,org.eclipse.ui,3.7.0.I20110602-0100,"org.eclipse.ui.edit.paste",1340392680984
activated,view,org.eclipse.ui.navigator.resources,3.4.300.I20110421-1800,"org.eclipse.ui.navigator.ProjectExplorer",1340392682444
deactivated,workbench,org.eclipse.ui.workbench,3.7.0.I20110519-0100,"",1340392682807
executed,command,org.eclipse.ui,3.7.0.I20110602-0100,"org.eclipse.ui.edit.copy",1340392684910
activated,workbench,org.eclipse.ui.workbench,3.7.0.I20110519-0100,"",1340392685321
executed,command,org.eclipse.ltk.ui.refactoring,3.6.0.v20110505-0800,"org.eclipse.ltk.ui.refactoring.commands.renameResource",1340392685328
executed,command,org.eclipse.ui,3.7.0.I20110602-0100,"org.eclipse.ui.edit.rename",1340392685328
activated,editor,org.eclipse.wst.html.ui,1.0.602.v201202091936,"org.eclipse.wst.html.core.htmlsource.source",1340392687102
executed,command,org.eclipse.ui,3.7.0.I20110602-0100,"org.eclipse.ui.edit.paste",1340392688306
executed,command,org.eclipse.ui.workbench.texteditor,3.7.0.v20110505-0800,"org.eclipse.ui.edit.text.goto.lineEnd",1340392688853
executed,command,org.eclipse.ui.workbench.texteditor,3.7.0.v20110505-0800,"org.eclipse.ui.edit.text.select.lineStart",1340392689183
executed,command,org.eclipse.ui,3.7.0.I20110602-0100,"org.eclipse.ui.edit.cut",1340392689564
deactivated,workbench,org.eclipse.ui.workbench,3.7.0.I20110519-0100,"",1340392690564
executed,command,org.eclipse.ui,3.7.0.I20110602-0100,"org.eclipse.ui.window.openEditorDropDown",1340392690576
activated,workbench,org.eclipse.ui.workbench,3.7.0.I20110519-0100,"",1340392691299
executed,command,org.eclipse.ui.workbench.texteditor,3.7.0.v20110505-0800,"org.eclipse.ui.edit.text.delete.line",1340392692475
executed,command,org.eclipse.ui.workbench.texteditor,3.7.0.v20110505-0800,"org.eclipse.ui.edit.text.goto.lineEnd",1340392693523
executed,command,org.eclipse.ui,3.7.0.I20110602-0100,"org.eclipse.ui.edit.paste",1340392694077
executed,command,org.eclipse.ui,3.7.0.I20110602-0100,"org.eclipse.ui.file.save",1340392694439
deactivated,workbench,org.eclipse.ui.workbench,3.7.0.I20110519-0100,"",1340392701804
activated,workbench,org.eclipse.ui.workbench,3.7.0.I20110519-0100,"",1340392797801
executed,command,org.eclipse.ui,3.7.0.I20110602-0100,"org.eclipse.ui.edit.text.contentAssist.proposals",1340392805639
executed,command,org.eclipse.ui,3.7.0.I20110602-0100,"org.eclipse.ui.edit.text.contentAssist.proposals",1340392808084
executed,command,org.eclipse.ui,3.7.0.I20110602-0100,"org.eclipse.ui.edit.text.contentAssist.proposals",1340392811086
executed,command,org.eclipse.ui,3.7.0.I20110602-0100,"org.eclipse.ui.edit.text.contentAssist.proposals",1340392813724
executed,command,org.eclipse.ui,3.7.0.I20110602-0100,"org.eclipse.ui.edit.text.contentAssist.proposals",1340392814721
executed,command,org.eclipse.ui,3.7.0.I20110602-0100,"org.eclipse.ui.edit.text.contentAssist.proposals",1340392814847
executed,command,org.eclipse.ui,3.7.0.I20110602-0100,"org.eclipse.ui.edit.text.contentAssist.proposals",1340392814975
executed,command,org.eclipse.ui,3.7.0.I20110602-0100,"org.eclipse.ui.edit.text.contentAssist.proposals",1340392815096
executed,command,org.eclipse.ui,3.7.0.I20110602-0100,"org.eclipse.ui.edit.text.contentAssist.proposals",1340392815208
executed,command,org.eclipse.ui,3.7.0.I20110602-0100,"org.eclipse.ui.edit.text.contentAssist.proposals",1340392815357
executed,command,org.eclipse.ui,3.7.0.I20110602-0100,"org.eclipse.ui.edit.text.contentAssist.proposals",1340392815496
executed,command,org.eclipse.ui,3.7.0.I20110602-0100,"org.eclipse.ui.edit.text.contentAssist.proposals",1340392815620
executed,command,org.eclipse.ui,3.7.0.I20110602-0100,"org.eclipse.ui.edit.text.contentAssist.proposals",1340392816767
executed,command,org.eclipse.ui,3.7.0.I20110602-0100,"org.eclipse.ui.edit.text.contentAssist.proposals",1340392824490
executed,command,org.eclipse.ui,3.7.0.I20110602-0100,"org.eclipse.ui.edit.text.contentAssist.proposals",1340392827867
executed,command,org.eclipse.ui,3.7.0.I20110602-0100,"org.eclipse.ui.edit.text.contentAssist.proposals",1340392838267
executed,command,org.eclipse.ui,3.7.0.I20110602-0100,"org.eclipse.ui.edit.text.contentAssist.proposals",1340392840201
activated,view,org.eclipse.ui.navigator.resources,3.4.300.I20110421-1800,"org.eclipse.ui.navigator.ProjectExplorer",1340392846080
executed,command,org.eclipse.ui,3.7.0.I20110602-0100,"org.eclipse.ui.file.refresh",1340392846547
deactivated,workbench,org.eclipse.ui.workbench,3.7.0.I20110519-0100,"",1340392848822
executed,command,org.eclipse.ui,3.7.0.I20110602-0100,"org.eclipse.ui.edit.copy",1340392849426
activated,workbench,org.eclipse.ui.workbench,3.7.0.I20110519-0100,"",1340392849781
executed,command,org.eclipse.ltk.ui.refactoring,3.6.0.v20110505-0800,"org.eclipse.ltk.ui.refactoring.commands.renameResource",1340392849788
executed,command,org.eclipse.ui,3.7.0.I20110602-0100,"org.eclipse.ui.edit.rename",1340392849788
activated,editor,org.eclipse.wst.html.ui,1.0.602.v201202091936,"org.eclipse.wst.html.core.htmlsource.source",1340392851402
executed,command,org.eclipse.ui,3.7.0.I20110602-0100,"org.eclipse.ui.edit.paste",1340392852047
executed,command,org.eclipse.ui.workbench.texteditor,3.7.0.v20110505-0800,"org.eclipse.ui.edit.text.goto.lineEnd",1340392852453
executed,command,org.eclipse.ui,3.7.0.I20110602-0100,"org.eclipse.ui.edit.text.contentAssist.proposals",1340392853341
executed,command,org.eclipse.ui,3.7.0.I20110602-0100,"org.eclipse.ui.file.save",1340392858280
executed,command,org.eclipse.ui,3.7.0.I20110602-0100,"org.eclipse.ui.file.save",1340392862471
executed,command,org.eclipse.ui,3.7.0.I20110602-0100,"org.eclipse.ui.file.save",1340392867474
executed,command,org.eclipse.ui.workbench.texteditor,3.7.0.v20110505-0800,"org.eclipse.ui.edit.text.goto.lineEnd",1340392869136
executed,command,org.eclipse.ui.workbench.texteditor,3.7.0.v20110505-0800,"org.eclipse.ui.edit.text.goto.lineEnd",1340392870477
executed,command,org.eclipse.ui,3.7.0.I20110602-0100,"org.eclipse.ui.file.save",1340392871148
activated,view,org.eclipse.ui.navigator.resources,3.4.300.I20110421-1800,"org.eclipse.ui.navigator.ProjectExplorer",1340392903020
executed,command,org.eclipse.ui,3.7.0.I20110602-0100,"org.eclipse.ui.edit.copy",1340392903506
deactivated,workbench,org.eclipse.ui.workbench,3.7.0.I20110519-0100,"",1340392904612
activated,workbench,org.eclipse.ui.workbench,3.7.0.I20110519-0100,"",1340392906088
executed,command,org.eclipse.ui,3.7.0.I20110602-0100,"org.eclipse.ui.edit.paste",1340392906168
deactivated,workbench,org.eclipse.ui.workbench,3.7.0.I20110519-0100,"",1340392907443
started,bundle,org.eclipse.ant.ui,3.5.100.v20110510,"org.eclipse.ant.ui",1340392910213
activated,workbench,org.eclipse.ui.workbench,3.7.0.I20110519-0100,"",1340392910314
executed,command,org.eclipse.ltk.ui.refactoring,3.6.0.v20110505-0800,"org.eclipse.ltk.ui.refactoring.commands.renameResource",1340392910318
executed,command,org.eclipse.ui,3.7.0.I20110602-0100,"org.eclipse.ui.edit.rename",1340392910318
opened,editor,org.eclipse.wst.html.ui,1.0.602.v201202091936,"org.eclipse.wst.html.core.htmlsource.source",1340392913208
activated,editor,org.eclipse.wst.html.ui,1.0.602.v201202091936,"org.eclipse.wst.html.core.htmlsource.source",1340392913235
executed,command,org.eclipse.ui,3.7.0.I20110602-0100,"org.eclipse.ui.file.save",1340392919279
